5,2,9,4,21,3,3,12,6,9,6,3,28,13,3,3,6,7,3,3,2,2,6,4,5,4,4,8,1,9,1,7,2,6,4,3,2,2,5,5,4,5,2,5,2,111,3,5,1,4,4,2,5,2,4,8,3,5,10,2,4,2,4,2,2,3,3,2,13,3,3,10,92,5,2,18,1,4,5,4,6,3,5,21,2,3,3,4,5,10,5,1,2,7,27,1,3,4,4,3,4,2,1,4,4,7,6,2,5,6,3,1,12,4,3,5,4,4,20,4,7,7,8,6,5,2,8,8,3,22,2,9,3,7,13,4,9,6,2,6,8,2,7,5,3,2,6,2,8,14,9
42,33,80,14,31,6,11,21,49,10,19,14,18,49,4,15,29,36,11,27,10,9,12,8,25,14,31,8,6,12,9,13,12,47,40,5,11,30,18,12,24,34,13,16,26,13,8,15,17,14,12,47,48,9,16,15,30,18,10,24,13,15,11,17,4,16,16,21,21,15,26,40,39,30,20,17,7,40,13,9,14,11,14,37,14,22,11,10,16,41,15,15,5,18,11,16,10,16,11,6,15,11,10,43,10,14,12,11,19,15,26,16,18,28,16,18,6,18,12,12,15,35,70,13,35,12,12,36,23,14,9,20,9,14,12,18,13,37,15,24,9,17,21,18,15,13,17,13,12,12,7
33,14,42,25,34,6,13,17,16,11,20,18,3,85,11,7,13,66,6,9,6,19,14,9,9,15,9,5,3,13,10,15,15,11,6,114,9,14,15,34,8,33,8,18,6,10,4,14,5,41,8,31,25,5,17,37,21,52,9,8,6,12,15,6,4,30,14,200,11,7,8,8,7,14,17,17,2,15,4,4,13,3,20,15,9,25,6,14,16,49,22,13,3,8,9,5,16,4,10,6,8,24,8,22,7,18,5,4,18,5,6,13,10,50,20,39,21,13,15,16,26,9,9,11,11,19,4,7,9,12,8,18,10,23,21,6,7,8,13,6,9,9,27,7,10,6,14,4,11,13,15
10,4,4,8,34,3,4,5,29,7,13,4,2,9,4,6,15,9,3,4,18,2,2,19,9,3,14,4,2,9,2,5,2,5,5,45,29,3,2,27,5,3,9,4,3,3,3,2,2,10,4,3,11,2,5,14,2,10,4,43,3,3,5,39,16,15,9,4,5,5,4,8,5,3,9,5,2,6,2,9,2,2,3,9,3,12,3,11,3,6,5,2,2,3,5,5,10,8,3,4,3,17,3,5,3,8,4,4,6,4,4,12,4,15,3,11,6,5,12,4,11,5,16,2,15,4,3,5,3,4,17,16,5,2,4,3,6,10,16,9,10,3,15,12,4,2,15,4,14,5,6
6,3,5,3,38,3,2,4,11,3,13,5,6,10,2,3,5,9,7,3,3,3,7,8,6,2,4,8,3,5,3,84,7,3,6,2,2,3,2,6,15,5,2,14,4,2,2,1,4,2,3,2,7,2,2,3,20,5,2,17,3,10,2,6,1,4,2,6,3,3,7,14,7,2,4,10,1,4,9,2,3,2,3,6,2,3,2,4,5,25,5,3,1,4,3,8,4,2,3,4,6,5,3,3,4,13,3,4,5,6,2,10,5,7,3,17,8,16,8,4,8,9,25,3,3,4,2,6,3,4,11,5,3,2,10,4,8,7,3,7,3,4,9,8,14,2,5,3,7,20,5
7,13,16,22,46,9,7,6,17,6,26,5,8,34,17,39,6,18,7,8,16,4,4,13,6,6,15,9,2,13,3,9,21,23,5,48,4,6,5,3,8,5,16,11,6,4,5,4,4,4,5,4,34,4,4,23,22,24,3,109,15,4,8,4,7,20,4,15,12,3,7,16,10,4,7,25,3,16,4,3,4,6,18,55,14,5,7,59,7,42,8,3,3,9,7,3,9,14,5,23,5,13,11,7,3,15,16,5,4,4,4,18,8,25,5,10,8,23,28,7,10,10,38,6,12,7,4,8,5,9,31,8,7,17,8,11,10,12,7,8,6,14,6,7,18,5,31,3,17,6,8
18,6,29,16,29,7,3,15,17,9,16,20,4,36,4,4,19,40,13,9,3,13,8,10,8,9,4,33,5,8,6,20,11,6,15,7,9,10,8,10,4,25,4,7,6,13,5,10,5,5,5,8,11,8,8,21,12,9,8,8,6,18,24,5,5,8,12,41,9,5,5,19,19,11,38,13,3,6,5,3,8,3,15,32,4,9,3,7,16,19,30,4,4,8,10,5,6,3,5,10,5,10,3,6,18,13,5,4,26,11,4,15,4,8,6,9,6,14,11,15,10,11,35,11,14,5,4,8,5,6,12,11,7,15,6,5,18,16,4,5,8,3,12,10,12,7,200,5,12,22,12
10,3,40,17,23,10,5,47,13,8,29,10,4,92,7,10,21,35,12,13,5,9,12,16,7,19,10,8,24,11,10,23,13,8,19,12,6,15,7,41,12,26,6,64,9,7,6,32,7,9,12,11,15,5,11,12,5,13,11,17,15,12,30,8,5,21,13,19,9,4,13,21,31,24,22,27,4,12,5,4,27,9,16,72,7,10,6,11,12,30,34,11,3,17,23,5,11,6,3,21,7,39,15,11,9,18,7,12,16,8,14,7,7,26,3,21,8,11,23,9,39,13,26,9,14,31,7,17,10,12,14,12,19,10,11,6,15,16,9,7,9,9,18,10,12,6,13,7,18,9,14
13,10,52,21,30,13,18,27,13,11,28,20,21,33,13,50,21,56,21,16,17,29,17,12,35,21,35,8,8,17,11,41,11,21,32,8,19,20,16,14,24,26,22,36,15,13,12,17,17,13,18,13,29,16,13,27,18,18,19,62,10,27,26,21,4,10,14,21,22,18,9,36,32,13,27,46,7,41,15,11,20,18,16,98,24,38,34,26,33,43,24,9,7,6,9,8,10,5,8,22,7,22,16,27,15,14,23,23,21,16,25,18,15,32,17,27,9,200,16,11,18,35,14,16,15,38,18,117,22,12,13,15,20,23,27,36,12,51,16,85,5,30,32,15,22,15,9,8,20,16,12
5,6,56,21,32,7,5,21,10,11,19,14,3,21,9,3,23,50,5,17,5,16,11,31,6,16,4,6,2,20,5,34,9,5,4,4,6,14,11,4,8,34,5,11,4,35,9,9,5,12,5,7,14,3,11,13,18,9,10,12,8,11,15,68,2,13,15,24,5,2,7,8,22,12,23,11,3,18,3,3,9,4,27,13,8,26,8,4,13,27,23,8,3,6,6,3,5,3,2,15,29,20,6,10,4,14,7,3,17,4,5,6,5,25,11,11,6,15,15,18,40,10,37,14,7,16,7,5,5,5,14,10,6,4,5,5,4,8,10,23,12,4,35,38,5,6,13,9,10,4,19
19,8,62,13,28,11,13,78,18,11,29,17,12,42,17,49,20,140,44,200,12,12,15,11,37,23,28,16,9,15,13,14,12,36,15,12,16,12,24,25,20,27,11,21,21,14,10,12,13,36,18,9,16,10,16,17,15,12,11,38,8,21,17,20,7,9,13,29,21,14,9,22,41,27,18,16,7,48,15,22,11,10,18,59,15,15,13,10,21,10,25,30,8,15,17,10,7,4,19,13,7,22,11,49,14,28,40,16,25,15,24,11,24,38,21,12,12,17,34,15,38,11,37,13,21,11,13,56,16,13,14,18,16,21,19,14,21,67,10,13,13,24,62,21,22,23,16,11,34,16,11
5,2,3,4,36,5,2,3,5,9,9,16,3,19,9,3,16,6,3,6,2,2,3,17,10,2,3,3,2,5,1,9,2,3,3,4,4,4,9,4,3,3,3,4,5,2,12,3,4,2,5,2,10,3,3,6,3,10,2,9,3,4,2,3,1,3,2,6,14,3,4,4,10,2,3,4,1,10,2,2,4,2,3,7,3,2,3,5,2,11,7,2,3,6,4,2,3,2,9,6,8,5,2,3,2,8,2,6,4,2,3,8,3,5,7,8,4,3,11,7,8,6,4,2,16,9,5,6,8,7,5,10,5,8,32,4,3,6,2,7,15,4,4,4,5,4,11,3,7,5,5
15,102,38,22,43,6,11,50,12,13,23,18,11,18,10,23,16,31,5,12,16,9,37,17,29,32,13,11,11,14,26,12,22,28,40,4,9,12,16,12,12,18,8,169,9,21,14,8,11,17,22,8,14,73,10,16,22,16,10,23,8,14,13,10,5,9,12,102,15,28,18,20,26,9,17,29,3,27,59,11,7,155,19,34,15,14,23,12,23,37,12,9,5,9,15,7,8,4,7,7,5,7,7,19,7,11,5,11,18,10,13,10,19,23,11,26,6,15,21,15,11,9,29,7,15,15,8,21,15,11,7,11,24,39,10,9,11,19,6,11,6,20,24,26,14,22,8,8,10,34,7
6,11,42,10,95,8,8,14,7,5,14,19,5,29,5,7,18,31,22,6,5,19,29,8,14,11,10,9,5,10,7,14,11,11,8,5,7,15,15,10,13,28,20,14,15,13,4,10,7,12,11,6,23,13,14,9,10,8,6,11,8,17,13,16,3,9,10,25,6,12,9,8,8,7,15,12,3,52,6,7,9,8,14,23,7,19,200,13,40,37,28,10,6,11,7,3,7,7,11,8,7,10,18,21,6,10,7,5,16,5,7,8,14,9,8,13,6,5,15,7,9,9,53,9,7,5,4,6,15,13,14,10,7,11,7,8,24,22,10,18,17,46,20,17,5,7,58,5,15,19,6
22,3,13,12,30,23,3,8,14,5,24,5,3,5,10,25,7,10,18,17,26,3,5,33,6,27,6,24,4,12,28,7,5,6,21,29,5,6,10,31,30,8,31,8,6,31,4,3,4,6,32,10,15,4,4,33,5,186,23,13,34,6,4,4,30,35,6,6,8,7,36,10,8,9,6,37,4,13,8,4,38,6,10,14,6,39,30,18,8,9,40,3,1,8,6,41,12,5,6,10,42,20,7,27,10,43,4,4,25,15,44,9,9,44,6,45,12,11,20,9,46,18,7,4,16,47,5,27,4,5,48,5,7,11,16,49,8,21,4,6,50,9,11,18,15,51,21,8,12,11,52
5,11,6,18,26,8,25,6,12,8,15,4,2,22,8,4,11,29,6,3,9,3,3,13,5,7,7,10,3,7,4,6,4,7,5,9,12,4,7,16,6,22,5,10,8,3,4,14,5,10,13,4,20,2,4,31,10,15,4,16,12,13,15,14,4,10,8,7,5,8,7,8,6,2,7,16,4,16,3,3,4,3,24,12,13,8,14,31,6,9,4,12,2,6,8,3,14,3,7,8,5,7,15,7,6,10,3,4,6,9,34,8,5,31,2,17,7,22,12,12,19,13,50,4,9,6,5,9,3,9,7,5,7,9,8,11,4,8,24,8,6,5,12,6,9,6,5,4,13,14,8
15,47,131,5,34,9,23,5,12,6,26,5,16,37,29,5,8,10,8,4,10,23,7,17,8,8,5,13,2,20,3,6,3,7,4,4,4,5,11,5,15,39,4,44,18,4,3,28,9,6,4,4,22,2,5,15,33,12,3,22,16,16,5,14,12,14,3,9,5,2,20,7,8,6,16,28,5,11,10,2,10,3,5,73,6,41,17,10,8,45,45,3,2,8,12,3,7,3,5,25,4,13,4,5,4,22,4,5,6,3,18,6,9,10,4,21,26,7,49,9,83,18,39,2,7,4,15,32,8,10,7,3,7,3,17,2,6,22,11,12,3,26,11,5,6,8,31,12,19,4,8
18,8,56,16,39,17,11,14,26,10,26,28,11,51,10,71,32,40,16,35,8,11,11,14,24,14,13,10,6,11,7,15,13,37,15,68,23,10,12,14,13,28,25,7,13,11,6,14,16,19,16,12,16,7,13,17,32,11,8,29,22,11,16,17,6,17,15,25,24,200,13,22,26,23,18,21,5,29,14,11,14,10,22,52,17,18,33,12,19,23,22,11,5,15,9,8,10,8,10,16,8,17,14,53,8,11,7,12,14,15,36,10,16,18,10,38,19,24,54,18,24,13,37,13,23,14,16,25,28,10,14,13,24,10,9,13,8,25,13,13,26,18,24,13,34,12,20,10,10,12,10
